{
	"info": {
		"_postman_id": "3ee50a44-9501-491a-9c44-e28165025e73",
		"name": "basic crud",
		"schema": "https://schema.getpostman.com/json/collection/v2.1.0/collection.json"
	},
	"item": [
		{
			"name": "get all employees",
			"protocolProfileBehavior": {
				"disableBodyPruning": true
			},
			"request": {
				"method": "GET",
				"header": [],
				"body": {
					"mode": "raw",
					"raw": "",
					"options": {
						"raw": {
							"language": "json"
						}
					}
				},
				"url": {
					"raw": "localhost:8000/employees",
					"host": [
						"localhost"
					],
					"port": "8000",
					"path": [
						"employees"
					]
				}
			},
			"response": []
		},
		{
			"name": "add an employee ",
			"request": {
				"method": "POST",
				"header": [],
				"body": {
					"mode": "raw",
					"raw": " {\n            \"name\": \"emp6\",\n            \"employeeId\": 6,\n            \"age\": 38,\n            \"designation\": \"developer\",\n            \"salary\": 27000\n        }",
					"options": {
						"raw": {
							"language": "json"
						}
					}
				},
				"url": {
					"raw": "localhost:8000/employee",
					"host": [
						"localhost"
					],
					"port": "8000",
					"path": [
						"employee"
					]
				},
				"description": "input will be \n1) name - required field \n2)employeeId - required \n3)designation -optional ,\n4) skills - array - optional \n5)salary - required \n6) age -  required\n"
			},
			"response": []
		},
		{
			"name": "update employee detail",
			"request": {
				"method": "PUT",
				"header": [],
				"body": {
					"mode": "raw",
					"raw": "{\"name\" : \"employeetest\"}",
					"options": {
						"raw": {
							"language": "json"
						}
					}
				},
				"url": {
					"raw": "localhost:8000/employee/1",
					"host": [
						"localhost"
					],
					"port": "8000",
					"path": [
						"employee",
						"1"
					]
				},
				"description": "path /employee/{employeeId}\n\nemployeeId field can not be change "
			},
			"response": []
		},
		{
			"name": "delete an employee",
			"request": {
				"method": "DELETE",
				"header": [],
				"url": {
					"raw": "localhost:8000/employee/7",
					"host": [
						"localhost"
					],
					"port": "8000",
					"path": [
						"employee",
						"7"
					]
				},
				"description": "path /employee/{employeeId}"
			},
			"response": []
		},
		{
			"name": "get highest salary ",
			"request": {
				"method": "GET",
				"header": [],
				"url": {
					"raw": "localhost:8000/employees/max/salary",
					"host": [
						"localhost"
					],
					"port": "8000",
					"path": [
						"employees",
						"max",
						"salary"
					]
				}
			},
			"response": []
		},
		{
			"name": "get employee detail by id ",
			"request": {
				"method": "GET",
				"header": [],
				"url": {
					"raw": "localhost:8000/employee/1",
					"host": [
						"localhost"
					],
					"port": "8000",
					"path": [
						"employee",
						"1"
					]
				},
				"description": "path /employee/{employeeId}"
			},
			"response": []
		}
	],
	"protocolProfileBehavior": {}
}